{
  "project_info": {
    "project_number": "909857962573",
    "project_id": "rn-firebase-3c39e",
    "storage_bucket": "rn-firebase-3c39e.appspot.com"
  },
  "client": [
    {
      "client_info": {
        "mobilesdk_app_id": "1:909857962573:android:af72c7e2f6b6e787e13a04",
        "android_client_info": {
          "package_name": "com.MyApp"
        }
      },
      "oauth_client": [
        {
          "client_id": "909857962573-mkh2r47hgb4jeupsf6vkohu1t3mvqouk.apps.googleusercontent.com",
          "client_type": 3
        }
      ],
      "api_key": [
        {
          "current_key": "AIzaSyDAaSopiJ4D8fDC6WgmAdsXLmXBqr-26X0"
        }
      ],
      "services": {
        "appinvite_service": {
          "other_platform_oauth_client": [
            {
              "client_id": "909857962573-mkh2r47hgb4jeupsf6vkohu1t3mvqouk.apps.googleusercontent.com",
              "client_type": 3
            }
          ]
        }
      }
    },
    {
      "client_info": {
        "mobilesdk_app_id": "1:909857962573:android:23a2dd9cdfbb0250e13a04",
        "android_client_info": {
          "package_name": "com.videocallwebrtc"
        }
      },
      "oauth_client": [
        {
          "client_id": "909857962573-mkh2r47hgb4jeupsf6vkohu1t3mvqouk.apps.googleusercontent.com",
          "client_type": 3
        }
      ],
      "api_key": [
        {
          "current_key": "AIzaSyDAaSopiJ4D8fDC6WgmAdsXLmXBqr-26X0"
        }
      ],
      "services": {
        "appinvite_service": {
          "other_platform_oauth_client": [
            {
              "client_id": "909857962573-mkh2r47hgb4jeupsf6vkohu1t3mvqouk.apps.googleusercontent.com",
              "client_type": 3
            }
          ]
        }
      }
    }
  ],
  "configuration_version": "1"
}